<svg xmlns="http://www.w3.org/2000/svg" width="21.226" height="19.953" viewBox="0 0 21.226 19.953">
  <path id="Path_1112" data-name="Path 1112" d="M234.1,157.615a5.463,5.463,0,0,0-7.716,0L215.8,168.2a4.528,4.528,0,1,0,6.4,6.4l6.391-6.391a3.479,3.479,0,0,0-4.92-4.92l-5.364,5.364a2.591,2.591,0,0,0,3.665,3.665l4.651-4.651a.534.534,0,1,0-.755-.754l-4.651,4.651a1.524,1.524,0,0,1-2.156-2.156l5.364-5.364a2.412,2.412,0,0,1,3.411,3.411l-6.391,6.391a3.461,3.461,0,1,1-4.895-4.895L227.14,158.37a4.389,4.389,0,1,1,6.207,6.207l-10.485,10.485a.534.534,0,0,0,.755.755L234.1,165.331a5.456,5.456,0,0,0,0-7.716Z" transform="translate(-214.474 -156.02)" fill="#bdbdbd"/>
</svg>
