<svg xmlns="http://www.w3.org/2000/svg" width="40.465" height="13.621" viewBox="0 0 40.465 13.621">
  <g id="Group_406" data-name="Group 406" transform="translate(-380 50.787)">
    <path id="Path_1179" data-name="Path 1179" d="M381.9,204.7a1.972,1.972,0,0,0-.613.82,13.489,13.489,0,0,0-.425,1.381l-.126.475-1.558,6.13-1.816-7.841a1.405,1.405,0,0,0-1.614-1.212h-11.1c-.51,0-.528.539-.53.543V217.7a.272.272,0,0,0,.27.27h1.031a1.655,1.655,0,0,0,1.687-1.794v-3.871H371a1.652,1.652,0,0,0,1.843-1.66v-.224c0-.214-.073-.343-.33-.343h-5.4v-3.206h7.634l2.3,8.87c.071.266.474,1.669.474,1.669.155.492.138.564.558.564h.933a1.722,1.722,0,0,0,1.745-1.205,6.928,6.928,0,0,0,.338-1l2.031-7.647,2.148,7.609c.07.266.445,1.674.445,1.674.155.491.139.566.558.566h.932a1.724,1.724,0,0,0,1.747-1.208,11.2,11.2,0,0,0,.364-1.137l2.112-8.749h6.54a4.861,4.861,0,0,1,1.422.172,2.571,2.571,0,0,1,1.387,1.173,6.109,6.109,0,0,1,.606,2.988,4.658,4.658,0,0,1-1.272,3.52,1.988,1.988,0,0,1-.656.389,3.1,3.1,0,0,1-.752.181,9.473,9.473,0,0,1-1.047.083h-.007l-1.426,0h-2.049l-.01,0c-.443,0-.457.257-.457.368v.532a1.759,1.759,0,0,0,1.922,1.664h2.533a10.794,10.794,0,0,0,1.712-.14,5.548,5.548,0,0,0,1.443-.449,4.925,4.925,0,0,0,1.241-.834,5.873,5.873,0,0,0,1.169-1.518,6.907,6.907,0,0,0,.66-1.888,8.49,8.49,0,0,0,.2-1.9v-.017a6.842,6.842,0,0,0-2.245-5.549,4.61,4.61,0,0,0-1.911-1,9.545,9.545,0,0,0-2.307-.246H390.2c-.435,0-1.087.229-1.337,1.253l-1.719,7.791-1.827-6.11v.005l-.123-.45q-.265-.977-.424-1.4a1.974,1.974,0,0,0-.568-.784,1.681,1.681,0,0,0-1.147-.358,1.773,1.773,0,0,0-1.154.344" transform="translate(15.877 -255.144)" fill="#1c393c"/>
    <path id="Path_1181" data-name="Path 1181" d="M430.06,215.374a.484.484,0,0,1,.14.344.489.489,0,0,1-.14.344l-2.4,2.376a.5.5,0,0,1-.348.141.458.458,0,0,1-.188-.037.483.483,0,0,1-.3-.448v-4.753a.489.489,0,0,1,.3-.451.5.5,0,0,1,.536.106Z" transform="translate(-17.251 -259.634)" fill="#f26719"/>
  </g>
</svg>
