<svg xmlns="http://www.w3.org/2000/svg" width="34" height="40.362" viewBox="0 0 34 40.362">
  <g id="Group_507" data-name="Group 507" transform="translate(-320.5 -760.352)">
    <g id="Group_97" data-name="Group 97" transform="translate(-0.5 -75.286)">
      <text id="Profile" transform="translate(338 874)" fill="#7c878e" font-size="12" font-family="FWDCircularTT-Book, FWD Circular TT" letter-spacing="0.012em"><tspan x="-16.47" y="0">Home</tspan></text>
    </g>
    <g id="Group_505" data-name="Group 505" transform="translate(-966.986 -2858.879)">
      <g id="Group_506" data-name="Group 506" transform="translate(1291.902 3619.231)">
        <g id="Group_501" data-name="Group 501" transform="translate(4.324 4.035)">
          <path id="Path_1253" data-name="Path 1253" d="M1307.7,3643.143v10.767a.823.823,0,0,0,.854.787h18.228a.822.822,0,0,0,.853-.787v-10.767l-9.968-9.174Z" transform="translate(-1307.696 -3633.969)" fill="#7c878e"/>
        </g>
        <path id="Path_1254" data-name="Path 1254" d="M1306.881,3619.231h-1.373l-6.191,5.7v-3.538H1295.9v6.683l-4,3.679,2.928-.007,11.364-10.458,11.375,10.468,2.917,0Z" transform="translate(-1291.902 -3619.231)" fill="#7c878e"/>
      </g>
    </g>
  </g>
</svg>
