<svg id="Group_433" data-name="Group 433" xmlns="http://www.w3.org/2000/svg" width="58.29" height="58.291" viewBox="0 0 58.29 58.291">
  <ellipse id="Ellipse_80" data-name="Ellipse 80" cx="29.145" cy="29.145" rx="29.145" ry="29.145" transform="translate(0 0)" fill="#fed141"/>
  <path id="Path_1245" data-name="Path 1245" d="M3300.442,1510.372h-29.435a3.552,3.552,0,0,1-3.548-3.548v-18.657a3.552,3.552,0,0,1,3.548-3.548h29.435a3.552,3.552,0,0,1,3.548,3.548v18.657A3.552,3.552,0,0,1,3300.442,1510.372Zm-29.435-24.025a1.822,1.822,0,0,0-1.82,1.82v18.657a1.822,1.822,0,0,0,1.82,1.82h29.435a1.822,1.822,0,0,0,1.82-1.82v-18.657a1.822,1.822,0,0,0-1.82-1.82Z" transform="translate(-3256.553 -1466.882)" fill="#fff"/>
  <ellipse id="Ellipse_81" data-name="Ellipse 81" cx="2.845" cy="2.845" rx="2.845" ry="2.845" transform="translate(15.519 22.138)" fill="#fff"/>
  <path id="Path_1246" data-name="Path 1246" d="M3319.737,1545.152l-2.719-4.614-1.743-2.955-1.927-3.265-1.848-3.078-3.681-6.182V1525h0v.057l-4.031,6.873-1.4,2.4-1.047,1.783-.153.265-.175-.265-3.445-5.48h0v.025h0v-.025l-5.344,7.395-.891,1.248-4.244,5.878Z" transform="translate(-3273.867 -1502.504)" fill="#fff"/>
</svg>
