<svg xmlns="http://www.w3.org/2000/svg" width="36" height="38.263" viewBox="0 0 36 38.263">
  <g id="Group_95" data-name="Group 95" transform="translate(-93 -837.737)">
    <text id="Flights" transform="translate(111 874)" fill="#7c878e" font-size="12" font-family="FWDCircularTT-Book, FWD Circular TT" letter-spacing="0.012em"><tspan x="-17.718" y="0">Memo</tspan></text>
    <g id="Group_100" data-name="Group 100" transform="translate(-285.898 327.579)">
      <g id="Group_100-2" data-name="Group 100" transform="translate(385.398 510.158)">
        <path id="Path_1099" data-name="Path 1099" d="M406.649,532.151h-15.38a5.878,5.878,0,0,1-5.871-5.871V510.9a.742.742,0,0,1,.743-.743h15.38a5.877,5.877,0,0,1,5.871,5.871v15.38A.743.743,0,0,1,406.649,532.151Zm-19.765-20.508v14.638a4.39,4.39,0,0,0,4.385,4.385h14.638V516.029a4.391,4.391,0,0,0-4.386-4.386Z" transform="translate(-385.398 -510.158)" fill="#7c878e"/>
      </g>
      <g id="Group_101" data-name="Group 101" transform="translate(390.047 513.987)">
        <path id="Path_1100" data-name="Path 1100" d="M407.653,519.9H396.169a.742.742,0,1,1,0-1.485h11.484a.742.742,0,1,1,0,1.485Z" transform="translate(-395.426 -518.417)" fill="#7c878e"/>
      </g>
      <g id="Group_102" data-name="Group 102" transform="translate(390.047 517.131)">
        <path id="Path_1101" data-name="Path 1101" d="M407.653,526.685H396.169a.742.742,0,1,1,0-1.485h11.484a.742.742,0,1,1,0,1.485Z" transform="translate(-395.426 -525.2)" fill="#7c878e"/>
      </g>
      <g id="Group_103" data-name="Group 103" transform="translate(390.047 520.275)">
        <path id="Path_1102" data-name="Path 1102" d="M407.653,533.468H396.169a.743.743,0,1,1,0-1.485h11.484a.743.743,0,0,1,0,1.485Z" transform="translate(-395.426 -531.983)" fill="#7c878e"/>
      </g>
      <g id="Group_104" data-name="Group 104" transform="translate(390.047 523.42)">
        <path id="Path_1103" data-name="Path 1103" d="M407.653,540.252H396.169a.742.742,0,1,1,0-1.485h11.484a.742.742,0,1,1,0,1.485Z" transform="translate(-395.426 -538.767)" fill="#7c878e"/>
      </g>
      <g id="Group_105" data-name="Group 105" transform="translate(390.047 526.564)">
        <path id="Path_1104" data-name="Path 1104" d="M407.653,547.035H396.169a.742.742,0,1,1,0-1.485h11.484a.742.742,0,1,1,0,1.485Z" transform="translate(-395.426 -545.55)" fill="#7c878e"/>
      </g>
    </g>
  </g>
</svg>
